[
  {
    "SN": "1",
    "Photo": "",
    "Name": "Shyam Mani Dhungana",
    "Organization": "Disaster Management Committee",
    "Post": "Chairperson",
    "Address": "Ward no. 1",
    "Phone No.": "9741003042",
    "Email": ""
  },
  {
    "SN": "2",
    "Photo": "",
    "Name": "Jeevan Lama",
    "Organization": "Disaster Management Committee",
    "Post": "Chairperson",
    "Address": "Ward no. 2",
    "Phone No.": "9803122316",
    "Email": ""
  },
  {
    "SN": "3",
    "Photo": "",
    "Name": "Santa B. Waiba",
    "Organization": "Disaster Management Committee",
    "Post": "Chairperson",
    "Address": "Ward no. 3",
    "Phone No.": "9851007933",
    "Email": ""
  },
  {
    "SN": "4",
    "Photo": "",
    "Name": "Buddhi B. Tamang",
    "Organization": "Disaster Management Committee",
    "Post": "Chairperson",
    "Address": "Ward no. 4",
    "Phone No.": "9861084937",
    "Email": ""
  },
  {
    "SN": "5",
    "Photo": "",
    "Name": "Sher Gambhir Thapa",
    "Organization": "Disaster Management Committee",
    "Post": "Chairperson",
    "Address": "Ward no. 5",
    "Phone No.": "9851011645",
    "Email": ""
  },
  {
    "SN": "6",
    "Photo": "",
    "Name": "Shree Ram Shrestha",
    "Organization": "Disaster Management Committee",
    "Post": "Chairperson",
    "Address": "Ward no. 6",
    "Phone No.": "9851144985",
    "Email": ""
  },
  {
    "SN": "7",
    "Photo": "",
    "Name": "Bishnu P. Shrestha",
    "Organization": "Disaster Management Committee",
    "Post": "Chairperson",
    "Address": "Ward no. 7",
    "Phone No.": "9841735724",
    "Email": ""
  },
  {
    "SN": "8",
    "Photo": "",
    "Name": "Hitman Tamang",
    "Organization": "Disaster Management Committee",
    "Post": "Chairperson",
    "Address": "Ward no. 8",
    "Phone No.": "9841556692",
    "Email": ""
  },
  {
    "SN": "9",
    "Photo": "",
    "Name": "Ghanashyam Thapa",
    "Organization": "Disaster Management Committee",
    "Post": "Chairperson",
    "Address": "Ward no. 9",
    "Phone No.": "9841143922",
    "Email": ""
  }
]